Columbia Extractionist task
…
[1] 129

Task 3: FIELD BY MUNICIPALITY

unique_fields_by_municipality <- prod_df %>%
  filter(!is.na(Field)) %>%  
  group_by(Municipality) %>%
  summarize(unique_fields = n_distinct(Field))

print(unique_fields_by_municipality)

# A tibble: 129 × 2
   Municipality unique_fields
   <chr>                <int>
 1 ACACIAS                  8
 2 AGUACHICA                9
 3 AGUAZUL                 15
 4 AIPE                    12
 5 ALVARADO                 1
 6 ARAUCA                  10
 7 ARAUQUITA               26
 8 ARIGUANI                 2
 9 ASTREA                   1
10 BARAYA                   2
# ℹ 119 more rows
…
